{
  "staging": {
    "awscloudformation": {
      "AuthRoleName": "amplify-amplify12bb1452f4b24-staging-111058-authRole",
      "UnauthRoleArn": "arn:aws:iam::177807608173:role/amplify-amplify12bb1452f4b24-staging-111058-unauthRole",
      "AuthRoleArn": "arn:aws:iam::177807608173:role/amplify-amplify12bb1452f4b24-staging-111058-authRole",
      "Region": "us-east-1",
      "DeploymentBucketName": "amplify-amplify12bb1452f4b24-staging-111058-deployment",
      "UnauthRoleName": "amplify-amplify12bb1452f4b24-staging-111058-unauthRole",
      "StackName": "amplify-amplify12bb1452f4b24-staging-111058",
      "StackId": "arn:aws:cloudformation:us-east-1:177807608173:stack/amplify-amplify12bb1452f4b24-staging-111058/91df86b0-325f-11ec-b79b-0ec777705953",
      "AmplifyAppId": "d1v2luid1fu1tz"
    },
    "categories": {
      "auth": {
        "tutelagefinalbd9f1493": {}
      }
    }
  }
}